{
    "news": [
        {            
            "id": "P0001",
            "url": "lorem-ipsum",
            "datePosted": "2020-01-01-01",
            "postedBy": "Mujadid",            
            "postTitle": "Praesentium soluta, eum magnam explicabo optio tempora?",
            "postDesc": "Lorem ipsum dolor sit amet consectetur adipisicing elit. Debitis dignissimos, soluta maiores assumenda quod."
        },
        {            
            "id": "P0001",
            "url": "lorem-ipsum",
            "datePosted": "2020-01-01-01",
            "postedBy": "Mujadid",            
            "postTitle": "Praesentium soluta, eum magnam explicabo optio tempora?",
            "postDesc": "Lorem ipsum dolor sit amet consectetur adipisicing elit. Debitis dignissimos, soluta maiores assumenda quod."
        },
        {            
            "id": "P0001",
            "url": "lorem-ipsum",
            "datePosted": "2020-01-01-01",
            "postedBy": "Mujadid",            
            "postTitle": "Praesentium soluta, eum magnam explicabo optio tempora?",
            "postDesc": "Lorem ipsum dolor sit amet consectetur adipisicing elit. Debitis dignissimos, soluta maiores assumenda quod."
        }
    ]
}